NAME,B01001_001E,B01001_002E,B01001_026E,state,county,tract,block group
Block Group 1; Census Tract 2; Champaign County; Illinois,1079,544,535,17,019,000200,1
Block Group 2; Census Tract 2; Champaign County; Illinois,1131,624,507,17,019,000200,2
Block Group 1; Census Tract 3.01; Champaign County; Illinois,1946,878,1068,17,019,000301,1
Block Group 2; Census Tract 3.01; Champaign County; Illinois,2155,1719,436,17,019,000301,2
Block Group 3; Census Tract 3.01; Champaign County; Illinois,1902,1086,816,17,019,000301,3
Block Group 1; Census Tract 3.02; Champaign County; Illinois,518,254,264,17,019,000302,1
Block Group 2; Census Tract 3.02; Champaign County; Illinois,1029,602,427,17,019,000302,2
Block Group 3; Census Tract 3.02; Champaign County; Illinois,992,598,394,17,019,000302,3
Block Group 1; Census Tract 4.01; Champaign County; Illinois,2510,1117,1393,17,019,000401,1
Block Group 2; Census Tract 4.01; Champaign County; Illinois,2044,1014,1030,17,019,000401,2
Block Group 1; Census Tract 4.02; Champaign County; Illinois,1137,772,365,17,019,000402,1
Block Group 2; Census Tract 4.02; Champaign County; Illinois,2240,1328,912,17,019,000402,2
Block Group 1; Census Tract 5; Champaign County; Illinois,506,253,253,17,019,000500,1
Block Group 2; Census Tract 5; Champaign County; Illinois,751,419,332,17,019,000500,2
Block Group 3; Census Tract 5; Champaign County; Illinois,1308,628,680,17,019,000500,3
Block Group 4; Census Tract 5; Champaign County; Illinois,1117,472,645,17,019,000500,4
Block Group 1; Census Tract 7; Champaign County; Illinois,853,467,386,17,019,000700,1
Block Group 2; Census Tract 7; Champaign County; Illinois,1009,493,516,17,019,000700,2
Block Group 3; Census Tract 7; Champaign County; Illinois,1870,1067,803,17,019,000700,3
Block Group 1; Census Tract 8; Champaign County; Illinois,3120,1506,1614,17,019,000800,1
Block Group 2; Census Tract 8; Champaign County; Illinois,656,366,290,17,019,000800,2
Block Group 3; Census Tract 8; Champaign County; Illinois,1478,867,611,17,019,000800,3
Block Group 4; Census Tract 8; Champaign County; Illinois,1481,701,780,17,019,000800,4
Block Group 1; Census Tract 9.01; Champaign County; Illinois,903,437,466,17,019,000901,1
Block Group 2; Census Tract 9.01; Champaign County; Illinois,1882,941,941,17,019,000901,2
Block Group 3; Census Tract 9.01; Champaign County; Illinois,1227,589,638,17,019,000901,3
Block Group 4; Census Tract 9.01; Champaign County; Illinois,769,321,448,17,019,000901,4
Block Group 1; Census Tract 9.02; Champaign County; Illinois,2487,1238,1249,17,019,000902,1
Block Group 2; Census Tract 9.02; Champaign County; Illinois,2100,1094,1006,17,019,000902,2
Block Group 3; Census Tract 9.02; Champaign County; Illinois,2886,1303,1583,17,019,000902,3
Block Group 1; Census Tract 10; Champaign County; Illinois,579,274,305,17,019,001000,1
Block Group 2; Census Tract 10; Champaign County; Illinois,599,355,244,17,019,001000,2
Block Group 3; Census Tract 10; Champaign County; Illinois,719,410,309,17,019,001000,3
Block Group 4; Census Tract 10; Champaign County; Illinois,1421,826,595,17,019,001000,4
Block Group 5; Census Tract 10; Champaign County; Illinois,1105,428,677,17,019,001000,5
Block Group 1; Census Tract 11; Champaign County; Illinois,1366,554,812,17,019,001100,1
Block Group 2; Census Tract 11; Champaign County; Illinois,1160,394,766,17,019,001100,2
Block Group 3; Census Tract 11; Champaign County; Illinois,1215,645,570,17,019,001100,3
Block Group 1; Census Tract 12.01; Champaign County; Illinois,1440,710,730,17,019,001201,1
Block Group 2; Census Tract 12.01; Champaign County; Illinois,1815,997,818,17,019,001201,2
Block Group 3; Census Tract 12.01; Champaign County; Illinois,1502,660,842,17,019,001201,3
Block Group 4; Census Tract 12.01; Champaign County; Illinois,1888,837,1051,17,019,001201,4
Block Group 5; Census Tract 12.01; Champaign County; Illinois,660,388,272,17,019,001201,5
Block Group 1; Census Tract 12.03; Champaign County; Illinois,1280,640,640,17,019,001203,1
Block Group 2; Census Tract 12.03; Champaign County; Illinois,1906,881,1025,17,019,001203,2
Block Group 3; Census Tract 12.03; Champaign County; Illinois,1066,522,544,17,019,001203,3
Block Group 1; Census Tract 12.04; Champaign County; Illinois,3704,1859,1845,17,019,001204,1
Block Group 1; Census Tract 12.05; Champaign County; Illinois,4175,2324,1851,17,019,001205,1
Block Group 2; Census Tract 12.05; Champaign County; Illinois,4187,2044,2143,17,019,001205,2
Block Group 1; Census Tract 12.06; Champaign County; Illinois,1837,859,978,17,019,001206,1
Block Group 1; Census Tract 13.01; Champaign County; Illinois,1979,909,1070,17,019,001301,1
Block Group 2; Census Tract 13.01; Champaign County; Illinois,429,190,239,17,019,001301,2
Block Group 3; Census Tract 13.01; Champaign County; Illinois,823,347,476,17,019,001301,3
Block Group 4; Census Tract 13.01; Champaign County; Illinois,1813,986,827,17,019,001301,4
Block Group 5; Census Tract 13.01; Champaign County; Illinois,787,372,415,17,019,001301,5
Block Group 1; Census Tract 13.02; Champaign County; Illinois,1897,743,1154,17,019,001302,1
Block Group 2; Census Tract 13.02; Champaign County; Illinois,765,344,421,17,019,001302,2
Block Group 3; Census Tract 13.02; Champaign County; Illinois,1705,727,978,17,019,001302,3
Block Group 1; Census Tract 14; Champaign County; Illinois,2096,991,1105,17,019,001400,1
Block Group 2; Census Tract 14; Champaign County; Illinois,2646,1609,1037,17,019,001400,2
Block Group 3; Census Tract 14; Champaign County; Illinois,2131,897,1234,17,019,001400,3
Block Group 1; Census Tract 53; Champaign County; Illinois,886,427,459,17,019,005300,1
Block Group 2; Census Tract 53; Champaign County; Illinois,1109,554,555,17,019,005300,2
Block Group 3; Census Tract 53; Champaign County; Illinois,669,301,368,17,019,005300,3
Block Group 4; Census Tract 53; Champaign County; Illinois,1921,938,983,17,019,005300,4
Block Group 1; Census Tract 54.01; Champaign County; Illinois,1363,547,816,17,019,005401,1
Block Group 2; Census Tract 54.01; Champaign County; Illinois,1228,612,616,17,019,005401,2
Block Group 3; Census Tract 54.01; Champaign County; Illinois,1574,771,803,17,019,005401,3
Block Group 1; Census Tract 54.02; Champaign County; Illinois,859,377,482,17,019,005402,1
Block Group 2; Census Tract 54.02; Champaign County; Illinois,858,476,382,17,019,005402,2
Block Group 3; Census Tract 54.02; Champaign County; Illinois,2104,847,1257,17,019,005402,3
Block Group 1; Census Tract 55; Champaign County; Illinois,632,298,334,17,019,005500,1
Block Group 2; Census Tract 55; Champaign County; Illinois,1051,526,525,17,019,005500,2
Block Group 3; Census Tract 55; Champaign County; Illinois,1812,962,850,17,019,005500,3
Block Group 4; Census Tract 55; Champaign County; Illinois,694,373,321,17,019,005500,4
Block Group 5; Census Tract 55; Champaign County; Illinois,493,297,196,17,019,005500,5
Block Group 1; Census Tract 56.01; Champaign County; Illinois,2175,1008,1167,17,019,005601,1
Block Group 2; Census Tract 56.01; Champaign County; Illinois,349,179,170,17,019,005601,2
Block Group 3; Census Tract 56.01; Champaign County; Illinois,1228,642,586,17,019,005601,3
Block Group 4; Census Tract 56.01; Champaign County; Illinois,652,342,310,17,019,005601,4
Block Group 5; Census Tract 56.01; Champaign County; Illinois,1227,724,503,17,019,005601,5
Block Group 1; Census Tract 56.02; Champaign County; Illinois,1788,698,1090,17,019,005602,1
Block Group 2; Census Tract 56.02; Champaign County; Illinois,506,214,292,17,019,005602,2
Block Group 1; Census Tract 57.01; Champaign County; Illinois,1501,555,946,17,019,005701,1
Block Group 2; Census Tract 57.01; Champaign County; Illinois,1257,649,608,17,019,005701,2
Block Group 3; Census Tract 57.01; Champaign County; Illinois,689,332,357,17,019,005701,3
Block Group 4; Census Tract 57.01; Champaign County; Illinois,1658,855,803,17,019,005701,4
Block Group 1; Census Tract 57.02; Champaign County; Illinois,1641,798,843,17,019,005702,1
Block Group 1; Census Tract 58; Champaign County; Illinois,357,178,179,17,019,005800,1
Block Group 2; Census Tract 58; Champaign County; Illinois,1027,606,421,17,019,005800,2
Block Group 3; Census Tract 58; Champaign County; Illinois,919,402,517,17,019,005800,3
Block Group 4; Census Tract 58; Champaign County; Illinois,1049,509,540,17,019,005800,4
Block Group 5; Census Tract 58; Champaign County; Illinois,695,342,353,17,019,005800,5
Block Group 1; Census Tract 59.01; Champaign County; Illinois,2463,821,1642,17,019,005901,1
Block Group 1; Census Tract 59.02; Champaign County; Illinois,1244,860,384,17,019,005902,1
Block Group 2; Census Tract 59.02; Champaign County; Illinois,1442,735,707,17,019,005902,2
Block Group 1; Census Tract 60; Champaign County; Illinois,1933,947,986,17,019,006000,1
Block Group 2; Census Tract 60; Champaign County; Illinois,1096,579,517,17,019,006000,2
Block Group 1; Census Tract 101; Champaign County; Illinois,1460,641,819,17,019,010100,1
Block Group 2; Census Tract 101; Champaign County; Illinois,985,359,626,17,019,010100,2
Block Group 3; Census Tract 101; Champaign County; Illinois,905,522,383,17,019,010100,3
Block Group 4; Census Tract 101; Champaign County; Illinois,821,485,336,17,019,010100,4
Block Group 1; Census Tract 102.04; Champaign County; Illinois,872,474,398,17,019,010204,1
Block Group 2; Census Tract 102.04; Champaign County; Illinois,532,225,307,17,019,010204,2
Block Group 3; Census Tract 102.04; Champaign County; Illinois,838,541,297,17,019,010204,3
Block Group 4; Census Tract 102.04; Champaign County; Illinois,951,566,385,17,019,010204,4
Block Group 5; Census Tract 102.04; Champaign County; Illinois,1470,695,775,17,019,010204,5
Block Group 1; Census Tract 103; Champaign County; Illinois,1179,468,711,17,019,010300,1
Block Group 2; Census Tract 103; Champaign County; Illinois,2634,1006,1628,17,019,010300,2
Block Group 1; Census Tract 104; Champaign County; Illinois,626,298,328,17,019,010400,1
Block Group 2; Census Tract 104; Champaign County; Illinois,537,274,263,17,019,010400,2
Block Group 3; Census Tract 104; Champaign County; Illinois,923,436,487,17,019,010400,3
Block Group 4; Census Tract 104; Champaign County; Illinois,1251,671,580,17,019,010400,4
Block Group 5; Census Tract 104; Champaign County; Illinois,1023,488,535,17,019,010400,5
Block Group 1; Census Tract 105; Champaign County; Illinois,760,404,356,17,019,010500,1
Block Group 2; Census Tract 105; Champaign County; Illinois,488,278,210,17,019,010500,2
Block Group 3; Census Tract 105; Champaign County; Illinois,1514,854,660,17,019,010500,3
Block Group 4; Census Tract 105; Champaign County; Illinois,1712,895,817,17,019,010500,4
Block Group 1; Census Tract 106.01; Champaign County; Illinois,4540,2162,2378,17,019,010601,1
Block Group 2; Census Tract 106.01; Champaign County; Illinois,1267,695,572,17,019,010601,2
Block Group 3; Census Tract 106.01; Champaign County; Illinois,467,210,257,17,019,010601,3
Block Group 1; Census Tract 106.03; Champaign County; Illinois,1032,565,467,17,019,010603,1
Block Group 2; Census Tract 106.03; Champaign County; Illinois,3421,1747,1674,17,019,010603,2
Block Group 3; Census Tract 106.03; Champaign County; Illinois,633,245,388,17,019,010603,3
Block Group 4; Census Tract 106.03; Champaign County; Illinois,2446,1274,1172,17,019,010603,4
Block Group 1; Census Tract 106.04; Champaign County; Illinois,1421,796,625,17,019,010604,1
Block Group 2; Census Tract 106.04; Champaign County; Illinois,1251,606,645,17,019,010604,2
Block Group 1; Census Tract 107.01; Champaign County; Illinois,928,481,447,17,019,010701,1
Block Group 2; Census Tract 107.01; Champaign County; Illinois,2395,1115,1280,17,019,010701,2
Block Group 3; Census Tract 107.01; Champaign County; Illinois,646,211,435,17,019,010701,3
Block Group 1; Census Tract 107.02; Champaign County; Illinois,681,355,326,17,019,010702,1
Block Group 2; Census Tract 107.02; Champaign County; Illinois,945,491,454,17,019,010702,2
Block Group 3; Census Tract 107.02; Champaign County; Illinois,630,345,285,17,019,010702,3
Block Group 4; Census Tract 107.02; Champaign County; Illinois,1725,955,770,17,019,010702,4
Block Group 1; Census Tract 108; Champaign County; Illinois,587,283,304,17,019,010800,1
Block Group 2; Census Tract 108; Champaign County; Illinois,902,490,412,17,019,010800,2
Block Group 3; Census Tract 108; Champaign County; Illinois,631,318,313,17,019,010800,3
Block Group 4; Census Tract 108; Champaign County; Illinois,797,414,383,17,019,010800,4
Block Group 5; Census Tract 108; Champaign County; Illinois,1248,630,618,17,019,010800,5
Block Group 1; Census Tract 109.01; Champaign County; Illinois,898,451,447,17,019,010901,1
Block Group 2; Census Tract 109.01; Champaign County; Illinois,1275,639,636,17,019,010901,2
Block Group 3; Census Tract 109.01; Champaign County; Illinois,930,436,494,17,019,010901,3
Block Group 4; Census Tract 109.01; Champaign County; Illinois,261,128,133,17,019,010901,4
Block Group 5; Census Tract 109.01; Champaign County; Illinois,1755,855,900,17,019,010901,5
Block Group 6; Census Tract 109.01; Champaign County; Illinois,1237,543,694,17,019,010901,6
Block Group 7; Census Tract 109.01; Champaign County; Illinois,14,10,4,17,019,010901,7
Block Group 1; Census Tract 109.02; Champaign County; Illinois,2092,955,1137,17,019,010902,1
Block Group 2; Census Tract 109.02; Champaign County; Illinois,441,202,239,17,019,010902,2
Block Group 3; Census Tract 109.02; Champaign County; Illinois,674,335,339,17,019,010902,3
Block Group 4; Census Tract 109.02; Champaign County; Illinois,593,296,297,17,019,010902,4
Block Group 1; Census Tract 110.01; Champaign County; Illinois,551,320,231,17,019,011001,1
Block Group 2; Census Tract 110.01; Champaign County; Illinois,963,570,393,17,019,011001,2
Block Group 3; Census Tract 110.01; Champaign County; Illinois,556,295,261,17,019,011001,3
Block Group 1; Census Tract 110.02; Champaign County; Illinois,1551,739,812,17,019,011002,1
Block Group 2; Census Tract 110.02; Champaign County; Illinois,624,367,257,17,019,011002,2
Block Group 1; Census Tract 111; Champaign County; Illinois,462,273,189,17,019,011100,1
Block Group 2; Census Tract 111; Champaign County; Illinois,350,266,84,17,019,011100,2
Block Group 3; Census Tract 111; Champaign County; Illinois,1294,896,398,17,019,011100,3
